<svg xmlns="http://www.w3.org/2000/svg" width="178" height="27" viewBox="0 0 178 27">
    <defs>
        <linearGradient id="a" x1="0%" y1="0%" y2="100%">
            <stop offset="0%" stop-color="#F6C57F"/>
            <stop offset="100%" stop-color="#AD5D2A"/>
        </linearGradient>
    </defs>
    <g fill="none" fill-rule="evenodd">
        <path fill="url(#a)" d="M9 19.546v.105L.004 23.192a4.058 4.058 0 0 1-.004-.19v-9.01l9.153 3.617H9v.02a.979.979 0 0 1 0 1.917zm10.458-3.762a1.287 1.287 0 0 0-.31-.183L0 7.86V3.998A4 4 0 0 1 3.998 0h19.004A4 4 0 0 1 27 3.998v19.004A4 4 0 0 1 23.002 27H5.724l13.423-5.427c.109-.044.213-.106.31-.182a2.936 2.936 0 0 0 .001-5.607z"/>
        <path fill="#FFF" d="M41.252 19.195c2.86 0 4.082-1.95 4.381-3.224l-1.963-.559c-.182.663-.819 1.729-2.418 1.729-1.378 0-2.652-1.001-2.652-2.73 0-1.937 1.391-2.821 2.626-2.821 1.625 0 2.21 1.079 2.353 1.716l1.937-.611c-.299-1.326-1.521-3.107-4.29-3.107-2.574 0-4.758 1.95-4.758 4.823s2.132 4.784 4.784 4.784zm7.287-4.81c0-1.924 1.378-2.795 2.665-2.795 1.274 0 2.652.871 2.652 2.795s-1.378 2.782-2.652 2.782c-1.287 0-2.665-.858-2.665-2.782zm-2.132.013c0 2.912 2.197 4.797 4.797 4.797 2.587 0 4.784-1.885 4.784-4.797 0-2.925-2.197-4.81-4.784-4.81-2.6 0-4.797 1.885-4.797 4.81zM67.877 19V9.783h-2.821L62.65 16.01l-2.535-6.227h-2.678V19h1.95v-6.032L61.793 19h1.664l2.405-6.11V19h2.015zm4.05-5.083v-2.353h1.196c.78 0 1.313.442 1.313 1.183 0 .715-.533 1.17-1.313 1.17h-1.196zm1.404 1.768c1.872 0 3.159-1.209 3.159-2.951 0-1.716-1.287-2.951-3.16-2.951h-3.47V19h2.054v-3.315h1.417zM83.257 19h2.236L82.06 9.783h-2.38L76.212 19h2.158l.663-1.872h3.562L83.257 19zm-2.418-6.929l1.105 3.185h-2.236l1.13-3.185zM94.612 19V9.783h-2.054v5.603L89.1 9.783h-2.496V19h2.041v-6.058L92.441 19h2.171zm4.297-3.848V19h2.054v-3.848l3.237-5.369h-2.288l-1.91 3.419-1.886-3.419h-2.405l3.198 5.369zM115.44 19V9.783h-1.703l-3.276 7.501-3.25-7.501h-1.729V19h1.261v-7.176l3.12 7.176h1.17l3.146-7.176V19h1.261zm8.704 0h1.378l-3.666-9.217h-1.469L116.72 19h1.365l.975-2.574h4.082L124.143 19zm-3.055-7.891l1.6 4.134h-3.173l1.573-4.134zM131.573 19h1.482l-2.197-3.861c1.39-.26 2.236-1.287 2.236-2.613 0-1.521-1.08-2.743-2.821-2.743h-3.471V19h1.287v-3.77h1.378l2.106 3.77zm-3.484-4.914v-3.159h1.95c1.04 0 1.742.624 1.742 1.599 0 .949-.702 1.56-1.742 1.56h-1.95zM140.537 19h1.612l-3.887-5.109 3.835-4.108h-1.677l-4.316 4.745V9.783h-1.274V19h1.274v-2.782l1.313-1.404 3.12 4.186zm8.56 0v-1.183h-4.328v-2.821h3.926V13.8h-3.926v-2.834h4.329V9.783h-5.603V19h5.603zm8.328-8.034V9.783h-7.436v1.183h3.08V19h1.275v-8.034h3.08zm-.28 7.202c0 .507.39.897.897.897s.91-.39.91-.897a.904.904 0 0 0-.91-.91.893.893 0 0 0-.897.91zm7.47 1.027c2.118 0 3.574-1.235 4.068-2.964l-1.13-.416c-.378 1.261-1.366 2.21-2.939 2.21-1.677 0-3.276-1.235-3.276-3.64 0-2.405 1.6-3.627 3.276-3.627 1.508 0 2.522.78 2.873 2.171l1.183-.416c-.468-1.781-1.95-2.925-4.056-2.925-2.288 0-4.576 1.716-4.576 4.797 0 3.081 2.197 4.81 4.576 4.81zM177.607 19V9.783h-1.274v3.939h-4.706V9.783h-1.274V19h1.274v-4.095h4.706V19h1.274z"/>
    </g>
</svg>
